INSTRUCTIONS FOR PROGRAM MATS - File MATS.DAT $Id$'
Study:                             Year:         Scenario:'
*------------------------------------------------------------------------'
1. OPTIONS'
  '1 Costs by transport category....... ... (0=no 1=yes)'   0'
  '2 Costs by mode and transport category.. (0=no 1=yes)'   0'
  '3 Costs by socio-economic sector........ (0=no 1=yes)'   0'
  '4 Trips by mode ........................ (0=no 1=yes)'   0'
  '5 Trips by transport category....... ... (0=no 1=yes)'   0'
  '6 Trips by mode and transport category . (0=no 1=yes)'   0'
  '7 Total trips (sum of all categories) .. (0=no 1=yes)'   0'
  '8 Frequency distribution by mode ....... (0=no 1=yes)'   0'
  '  Cost scale intervals ............ ..... (ex: 0.25)'  0.0'
 '9  Flows by socio-economic sector ....... (0=no 1=yes)'   0'
 '10 Flows by transport category ...... ... (0=no 1=yes)'   0'
 '11 Costs by transport category ...... ... (0=no 1=yes)'   0'
 '12 Costs by socio-economic sector ....... (0=no 1=yes)'   0'
 '13 External trips by transport category . (0=no 1=yes)'   0'
 '14 External trips by mode and category .. (0=no 1=yes)'   0'
*------------------------------------------------------------------------'
2.0 ZONE AGGREGATION'
  AggZone    " Name  "   List of composing zones ( end with / )       '
*------------------------------------------------------------------------'