
  TRANUS 2012-11-14 v12.11.1 

  Copyright (C) 1983-2012 Modelistica, Caracas
  Copyright (C) 1983-2003 Beatriz Perez, Caracas
  Copyright (C) 1985-2012 Juancarlo An~ez, Caracas
  Some rights reserved.

  (cc) This work is distrubuted under a Creative Commons
       Attribution-ShareAlike 2.0 license
       http://creativecommons.org/licenses/by-sa/2.0/
 ____________________________________________

 L C A L : ACTIVITY LOCATION CALIBRATION
 ____________________________________________



 READING PARAMETERS AND DATA

 ALLOCATION OF PRODUCTION
   Pol = 00A    C1S 00A/W_NEW00A.C1S                                                                                                                    

 ERROR#    1: ERROR G01: This file does not exist 
